{
  "$schema": "http://json-schema.org/draft-04/schema#",
  "type": "object",
  "properties": {
    "/mock/test": {
      "type": "object",
      "properties": {
        "POST": {
          "type": "object",
          "properties": {
            "fail_percent": {
              "type": "string"
            },
            "response": {
              "type": "object",
              "properties": {
                "success": {
                  "type": "object",
                  "properties": {
                    "message": {
                      "type": "object",
                      "properties": {
                        "status": {
                          "type": "string"
                        }
                      },
                      "required": [
                        "status"
                      ]
                    },
                    "code": {
                      "type": "integer"
                    }
                  },
                  "required": [
                    "message",
                    "code"
                  ]
                },
                "fail": {
                  "type": "object",
                  "properties": {
                    "message": {
                      "type": "object",
                      "properties": {
                        "status": {
                          "type": "string"
                        }
                      },
                      "required": [
                        "status"
                      ]
                    },
                    "code": {
                      "type": "integer"
                    }
                  },
                  "required": [
                    "message",
                    "code"
                  ]
                }
              },
              "required": [
                "success",
                "fail"
              ]
            }
          },
          "required": [
            "fail_percent",
            "response"
          ]
        },
        "GET": {
          "type": "object",
          "properties": {
            "response": {
              "type": "object",
              "properties": {
                "success": {
                  "type": "object",
                  "properties": {
                    "message": {
                      "type": "object",
                      "properties": {
                        "planet": {
                          "type": "string"
                        },
                        "galaxy": {
                          "type": "string"
                        },
                        "distance": {
                          "type": "string"
                        }
                      },
                      "required": [
                        "planet",
                        "galaxy",
                        "distance"
                      ]
                    },
                    "code": {
                      "type": "integer"
                    }
                  },
                  "required": [
                    "message",
                    "code"
                  ]
                }
              },
              "required": [
                "success"
              ]
            }
          },
          "required": [
            "response"
          ]
        },
        "PUT": {
          "type": "object",
          "properties": {
            "fail_percent": {
              "type": "string"
            },
            "response": {
              "type": "object",
              "properties": {
                "success": {
                  "type": "object",
                  "properties": {
                    "message": {
                      "type": "object",
                      "properties": {
                        "status": {
                          "type": "string"
                        }
                      },
                      "required": [
                        "status"
                      ]
                    },
                    "code": {
                      "type": "integer"
                    }
                  },
                  "required": [
                    "message",
                    "code"
                  ]
                }
              },
              "required": [
                "success"
              ]
            }
          },
          "required": [
            "fail_percent",
            "response"
          ]
        }
      }
    }
  }
}